codes/CPU.vcd
$date
	Tue May 25 17:49:06 2021
$end
$version
	Icarus Verilog
$end
$timescale
	1s
$end
$scope module Sign_Extend $end
$var wire 12 ! data_i [11:0] $end
$var reg 32 " data_o [31:0] $end
$upscope $end
$scope module TestBench $end
$var reg 1 # Clk $end
$var reg 1 $ Reset $end
$var reg 1 % Start $end
$var integer 32 & counter [31:0] $end
$var integer 32 ' flush [31:0] $end
$var integer 32 ( i [31:0] $end
$var integer 32 ) outfile [31:0] $end
$var integer 32 * stall [31:0] $end
$scope module CPU $end
$var wire 32 + ALU0 [31:0] $end
$var wire 32 , ALU1 [31:0] $end
$var wire 4 - ALUCtrl [3:0] $end
$var wire 2 . ALUOp_EX [1:0] $end
$var wire 2 / ALUOp_ID [1:0] $end
$var wire 1 0 ALUSrc_EX $end
$var wire 1 1 ALUSrc_ID $end
$var wire 32 2 ALU_result [31:0] $end
$var wire 32 3 ALU_result_MEM [31:0] $end
$var wire 32 4 ALU_result_WB [31:0] $end
$var wire 1 5 Branch $end
$var wire 1 6 Flush $end
$var wire 2 7 ForwardA [1:0] $end
$var wire 2 8 ForwardB [1:0] $end
$var wire 32 9 ImmGen_EX [31:0] $end
$var wire 32 : ImmGen_ID [31:0] $end
$var wire 32 ; MUX1_0 [31:0] $end
$var wire 32 < MUX1_1 [31:0] $end
$var wire 1 = MemRead_EX $end
$var wire 1 > MemRead_ID $end
$var wire 1 ? MemRead_MEM $end
$var wire 1 @ MemWrite_EX $end
$var wire 1 A MemWrite_ID $end
$var wire 1 B MemWrite_MEM $end
$var wire 1 C MemtoReg_EX $end
$var wire 1 D MemtoReg_ID $end
$var wire 1 E MemtoReg_MEM $end
$var wire 1 F MemtoReg_WB $end
$var wire 1 G NoOp $end
$var wire 1 H PCWrite $end
$var wire 32 I Readdata_MEM [31:0] $end
$var wire 32 J Readdata_WB [31:0] $end
$var wire 1 K RegWrite_EX $end
$var wire 1 L RegWrite_ID $end
$var wire 1 M RegWrite_MEM $end
$var wire 1 N RegWrite_WB $end
$var wire 1 O Stall $end
$var wire 32 P Writedata_EX [31:0] $end
$var wire 32 Q Writedata_MEM [31:0] $end
$var wire 32 R Writedata_WB [31:0] $end
$var wire 1 S clk_i $end
$var wire 32 T data1_i [31:0] $end
$var wire 32 U data1_o [31:0] $end
$var wire 32 V data2_i [31:0] $end
$var wire 32 W data2_o [31:0] $end
$var wire 10 X funct [9:0] $end
$var wire 32 Y instr_i [31:0] $end
$var wire 32 Z instr_o [31:0] $end
$var wire 32 [ pc_add [31:0] $end
$var wire 32 \ pc_i [31:0] $end
$var wire 32 ] pc_o [31:0] $end
$var wire 5 ^ rd_EX [4:0] $end
$var wire 5 _ rd_MEM [4:0] $end
$var wire 5 ` rd_WB [4:0] $end
$var wire 5 a rs1_EX [4:0] $end
$var wire 5 b rs2_EX [4:0] $end
$var wire 1 c rst_i $end
$var wire 1 d start_i $end
$var wire 1 e zero $end
$scope module MUX32_1 $end
$var wire 32 f data1_i [31:0] $end
$var wire 32 g data2_i [31:0] $end
$var wire 1 6 select_i $end
$var reg 32 h data_o [31:0] $end
$upscope $end
$scope module MUX32_2 $end
$var wire 32 i data1_i [31:0] $end
$var wire 32 j data2_i [31:0] $end
$var wire 1 0 select_i $end
$var reg 32 k data_o [31:0] $end
$upscope $end
$scope module MUX32_3 $end
$var wire 32 l data1_i [31:0] $end
$var wire 32 m data2_i [31:0] $end
$var wire 1 F select_i $end
$var reg 32 n data_o [31:0] $end
$upscope $end
$scope module MUX4_A $end
$var wire 32 o data1_i [31:0] $end
$var wire 32 p data2_i [31:0] $end
$var wire 32 q data3_i [31:0] $end
$var wire 2 r select_i [1:0] $end
$var reg 32 s data_o [31:0] $end
$upscope $end
$scope module MUX4_B $end
$var wire 32 t data1_i [31:0] $end
$var wire 32 u data2_i [31:0] $end
$var wire 32 v data3_i [31:0] $end
$var wire 2 w select_i [1:0] $end
$var reg 32 x data_o [31:0] $end
$upscope $end
$scope module PC $end
$var wire 1 H PCWrite_i $end
$var wire 1 S clk_i $end
$var wire 32 y pc_i [31:0] $end
$var wire 1 c rst_i $end
$var wire 1 d start_i $end
$var reg 32 z pc_o [31:0] $end
$upscope $end
$scope module Add_PC $end
$var wire 32 { data1_in [31:0] $end
$var wire 32 | data2_in [31:0] $end
$var reg 32 } data_o [31:0] $end
$upscope $end
$scope module Instruction_Memory $end
$var wire 32 ~ addr_i [31:0] $end
$var wire 32 !" instr_o [31:0] $end
$upscope $end
$scope module IF_ID $end
$var wire 1 6 Flush_i $end
$var wire 32 "" Instruction_i [31:0] $end
$var wire 32 #" PC_i [31:0] $end
$var wire 1 O Stall_i $end
$var wire 1 S clk_i $end
$var wire 1 c rst_i $end
$var reg 32 $" Instruction_o [31:0] $end
$var reg 32 %" PC_o [31:0] $end
$upscope $end
$scope module Add_BEQ $end
$var wire 32 &" data1_in [31:0] $end
$var wire 32 '" data2_in [31:0] $end
$var reg 32 (" data_o [31:0] $end
$upscope $end
$scope module Registers $end
$var wire 5 )" RDaddr_i [4:0] $end
$var wire 32 *" RDdata_i [31:0] $end
$var wire 5 +" RS1addr_i [4:0] $end
$var wire 32 ," RS1data_o [31:0] $end
$var wire 5 -" RS2addr_i [4:0] $end
$var wire 32 ." RS2data_o [31:0] $end
$var wire 1 N RegWrite_i $end
$var wire 1 S clk_i $end
$upscope $end
$scope module And $end
$var wire 1 5 data1_i $end
$var wire 1 /" data2_i $end
$var reg 1 0" data_o $end
$upscope $end
$scope module Control $end
$var wire 1 G NoOp_i $end
$var wire 7 1" Op_i [6:0] $end
$var reg 2 2" ALUOp_o [1:0] $end
$var reg 1 3" ALUSrc_o $end
$var reg 1 4" Branch_o $end
$var reg 1 5" MemRead_o $end
$var reg 1 6" MemWrite_o $end
$var reg 1 7" MemtoReg_o $end
$var reg 1 8" RegWrite_o $end
$upscope $end
$scope module ImmGen $end
$var wire 32 9" data_i [31:0] $end
$var reg 32 :" data_o [31:0] $end
$upscope $end
$scope module Hazard_Detection $end
$var wire 1 = MemRead_i $end
$var wire 5 ;" rd_i [4:0] $end
$var wire 5 <" rs1_i [4:0] $end
$var wire 5 =" rs2_i [4:0] $end
$var reg 1 >" NoOp_o $end
$var reg 1 ?" PCWrite_o $end
$var reg 1 @" Stall_o $end
$upscope $end
$scope module ID_EX $end
$var wire 2 A" ALUOp_i [1:0] $end
$var wire 1 1 ALUSrc_i $end
$var wire 32 B" ImmGen_i [31:0] $end
$var wire 1 > MemRead_i $end
$var wire 1 A MemWrite_i $end
$var wire 1 D MemtoReg_i $end
$var wire 1 L RegWrite_i $end
$var wire 1 S clk_i $end
$var wire 32 C" data1_i [31:0] $end
$var wire 32 D" data2_i [31:0] $end
$var wire 10 E" funct_i [9:0] $end
$var wire 5 F" rd_i [4:0] $end
$var wire 5 G" rs1_i [4:0] $end
$var wire 5 H" rs2_i [4:0] $end
$var wire 1 c rst_i $end
$var reg 2 I" ALUOp_o [1:0] $end
$var reg 1 J" ALUSrc_o $end
$var reg 32 K" ImmGen_o [31:0] $end
$var reg 1 L" MemRead_o $end
$var reg 1 M" MemWrite_o $end
$var reg 1 N" MemtoReg_o $end
$var reg 1 O" RegWrite_o $end
$var reg 32 P" data1_o [31:0] $end
$var reg 32 Q" data2_o [31:0] $end
$var reg 10 R" funct_o [9:0] $end
$var reg 5 S" rd_o [4:0] $end
$var reg 5 T" rs1_o [4:0] $end
$var reg 5 U" rs2_o [4:0] $end
$upscope $end
$scope module ALU $end
$var wire 4 V" ALUCtrl_i [3:0] $end
$var wire 32 W" data1_i [31:0] $end
$var wire 32 X" data2_i [31:0] $end
$var reg 1 Y" Zero_o $end
$var reg 32 Z" data_o [31:0] $end
$upscope $end
$scope module ALU_Control $end
$var wire 2 [" ALUOp_i [1:0] $end
$var wire 10 \" funct_i [9:0] $end
$var reg 4 ]" ALUCtrl_o [3:0] $end
$upscope $end
$scope module Forward $end
$var wire 1 M RegWrite_MEM_i $end
$var wire 1 N RegWrite_WB_i $end
$var wire 5 ^" rd_MEM_i [4:0] $end
$var wire 5 _" rd_WB_i [4:0] $end
$var wire 5 `" rs1_EX_i [4:0] $end
$var wire 5 a" rs2_EX_i [4:0] $end
$var reg 2 b" ForwardA_o [1:0] $end
$var reg 2 c" ForwardB_o [1:0] $end
$upscope $end
$scope module EX_MEM $end
$var wire 1 = MemRead_i $end
$var wire 1 @ MemWrite_i $end
$var wire 1 C MemtoReg_i $end
$var wire 1 K RegWrite_i $end
$var wire 32 d" Writedata_i [31:0] $end
$var wire 1 S clk_i $end
$var wire 32 e" data_i [31:0] $end
$var wire 5 f" rd_i [4:0] $end
$var wire 1 c rst_i $end
$var reg 1 g" MemRead_o $end
$var reg 1 h" MemWrite_o $end
$var reg 1 i" MemtoReg_o $end
$var reg 1 j" RegWrite_o $end
$var reg 32 k" Writedata_o [31:0] $end
$var reg 32 l" data_o [31:0] $end
$var reg 5 m" rd_o [4:0] $end
$upscope $end
$scope module Data_Memory $end
$var wire 1 ? MemRead_i $end
$var wire 1 B MemWrite_i $end
$var wire 32 n" addr_i [31:0] $end
$var wire 1 S clk_i $end
$var wire 32 o" data_i [31:0] $end
$var wire 32 p" data_o [31:0] $end
$upscope $end
$scope module MEM_WB $end
$var wire 1 E MemtoReg_i $end
$var wire 32 q" Readdata_i [31:0] $end
$var wire 1 M RegWrite_i $end
$var wire 1 S clk_i $end
$var wire 32 r" data_i [31:0] $end
$var wire 5 s" rd_i [4:0] $end
$var wire 1 c rst_i $end
$var reg 1 t" MemtoReg_o $end
$var reg 32 u" Readdata_o [31:0] $end
$var reg 1 v" RegWrite_o $end
$var reg 32 w" data_o [31:0] $end
$var reg 5 x" rd_o [4:0] $end
$upscope $end
$upscope $end
$upscope $end
$enddefinitions $end
#0
$dumpvars
b0 x"
b0 w"
0v"
b0 u"
0t"
b0 s"
b0 r"
b0 q"
b0 p"
b0 o"
b0 n"
b0 m"
b0 l"
b0 k"
0j"
0i"
0h"
0g"
b0 f"
b0 e"
b0 d"
b0 c"
b0 b"
b0 a"
b0 `"
b0 _"
b0 ^"
b110 ]"
b0 \"
b0 ["
b0 Z"
1Y"
b0 X"
b0 W"
b110 V"
b0 U"
b0 T"
b0 S"
b0 R"
b0 Q"
b0 P"
0O"
0N"
0M"
0L"
b0 K"
0J"
b0 I"
b0 H"
b0 G"
b0 F"
b0 E"
b0 D"
b0 C"
b0 B"
b10 A"
0@"
1?"
0>"
b0 ="
b0 <"
b0 ;"
b0 :"
b0 9"
18"
07"
06"
05"
04"
03"
b10 2"
b0 1"
00"
1/"
b0 ."
b0 -"
b0 ,"
b0 +"
b0 *"
b0 )"
b0 ("
b0 '"
b0 &"
b0 %"
b0 $"
b0 #"
b110000010011 ""
b110000010011 !"
b0 ~
b100 }
b100 |
b0 {
b0 z
b100 y
b0 x
b0 w
b0 v
b0 u
b0 t
b0 s
b0 r
b0 q
b0 p
b0 o
b0 n
b0 m
b0 l
b0 k
b0 j
b0 i
b100 h
b0 g
b100 f
1e
0d
1c
b0 b
b0 a
b0 `
b0 _
b0 ^
b0 ]
b100 \
b0 [
b0 Z
b110000010011 Y
b0 X
b0 W
b0 V
b0 U
b0 T
1S
b0 R
b0 Q
b0 P
0O
0N
0M
1L
0K
b0 J
b0 I
1H
0G
0F
0E
0D
0C
0B
0A
0@
0?
0>
0=
b0 <
b100 ;
b0 :
b0 9
b0 8
b0 7
06
05
b0 4
b0 3
b0 2
01
00
b10 /
b0 .
b110 -
b0 ,
b0 +
b0 *
b11 )
b100000 (
b0 '
b0 &
0%
1$
1#
bz "
bz !
$end
#12
1%
1d
0$
0c
#25
0#
0S
#50
13"
11
b0 2"
b0 /
b0 A"
b1000 h
b1000 \
b1000 y
b11 ]"
b11 -
b11 V"
b11000 F"
b10011 1"
b0 :"
b10000000000110100010011 Y
b10000000000110100010011 !"
b10000000000110100010011 ""
b1000 }
b1000 ;
b1000 f
b10 I"
b10 .
b10 ["
1O"
1K
b110000010011 $"
b110000010011 Z
b110000010011 9"
b100 z
b100 ]
b100 {
b100 ~
b100 #"
b1 &
1#
1S
#75
0#
0S
#100
b1000 &"
b1100 h
b1100 \
b1100 y
b1100 ("
b1100 <
b1100 g
b11010 F"
b100 H"
b100 ="
b100 -"
b100 :"
b100 :
b100 B"
b110 ]"
b110 -
b110 V"
b10000000000111000010011 Y
b10000000000111000010011 !"
b10000000000111000010011 ""
b1100 }
b1100 ;
b1100 f
b100 %"
b100 [
b100 '"
b10000000000110100010011 $"
b10000000000110100010011 Z
b10000000000110100010011 9"
b11000 S"
b11000 ^
b11000 ;"
b11000 f"
1J"
10
b0 I"
b0 .
b0 ["
1j"
1M
b1000 z
b1000 ]
b1000 {
b1000 ~
b1000 #"
b10 &
1#
1S
#125
0#
0S
#150
0Y"
0e
b100 Z"
b100 2
b100 e"
b10000 h
b10000 \
b10000 y
b100 k
b100 ,
b100 X"
b10000 ("
b10000 <
b10000 g
b11100 F"
b100 :"
b11111111111100000000011110010011 Y
b11111111111100000000011110010011 !"
b11111111111100000000011110010011 ""
b10000 }
b10000 ;
b10000 f
1v"
1N
b11000 m"
b11000 _
b11000 ^"
b11000 s"
b11010 S"
b11010 ^
b11010 ;"
b11010 f"
b100 U"
b100 b
b100 a"
b100 K"
b100 9
b100 j
b1000 %"
b1000 [
b1000 '"
b10000000000111000010011 $"
b10000000000111000010011 Z
b10000000000111000010011 9"
b1100 z
b1100 ]
b1100 {
b1100 ~
b1100 #"
b11 &
1#
1S
#175
0#
0S
#200
00"
0/"
b111110 V
b111110 ."
b111110 D"
b11111111111111111111111111111110 &"
b10100 h
b10100 \
b10100 y
b1010 ("
b1010 <
b1010 g
b1111 F"
b11111 H"
b1111111000 E"
b11111 ="
b11111 -"
b11111111111111111111111111111111 :"
b11111111111111111111111111111111 :
b11111111111111111111111111111111 B"
b11110011010000110010110011 Y
b11110011010000110010110011 !"
b11110011010000110010110011 ""
b10100 }
b10100 ;
b10100 f
b1100 %"
b1100 [
b1100 '"
b11111111111100000000011110010011 $"
b11111111111100000000011110010011 Z
b11111111111100000000011110010011 9"
b11100 S"
b11100 ^
b11100 ;"
b11100 f"
b11010 m"
b11010 _
b11010 ^"
b11010 s"
b100 l"
b100 3
b100 q
b100 v
b100 n"
b100 r"
b11000 x"
b11000 `
b11000 )"
b11000 _"
b10000 z
b10000 ]
b10000 {
b10000 ~
b10000 #"
b100 &
1#
1S
#225
0#
0S
#250
03"
01
b10 2"
b10 /
b10 A"
b11111111111111111111111111111111 Z"
b11111111111111111111111111111111 2
b11111111111111111111111111111111 e"
b111000 V
b111000 ."
b111000 D"
b100 T
b100 ,"
b100 C"
b0 &"
b11000 h
b11000 \
b11000 y
b100 n
b100 R
b100 p
b100 u
b100 *"
b11111111111111111111111111111111 k
b11111111111111111111111111111111 ,
b11111111111111111111111111111111 X"
b111110 x
b111110 P
b111110 i
b111110 d"
b10000 ("
b10000 <
b10000 g
b11001 F"
b11100 H"
b11010 G"
b1000 E"
b11100 ="
b11010 <"
b110011 1"
b11100 -"
b11010 +"
b0 :"
b0 :
b0 B"
b11111111111111010000110100010011 Y
b11111111111111010000110100010011 !"
b11111111111111010000110100010011 ""
b11000 }
b11000 ;
b11000 f
b11010 x"
b11010 `
b11010 )"
b11010 _"
b100 w"
b100 4
b100 l
b11100 m"
b11100 _
b11100 ^"
b11100 s"
b1111 S"
b1111 ^
b1111 ;"
b1111 f"
b11111 U"
b11111 b
b11111 a"
b1111111000 R"
b1111111000 X
b1111111000 \"
b11111111111111111111111111111111 K"
b11111111111111111111111111111111 9
b11111111111111111111111111111111 j
b111110 Q"
b111110 W
b111110 t
b10000 %"
b10000 [
b10000 '"
b11110011010000110010110011 $"
b11110011010000110010110011 Z
b11110011010000110010110011 9"
b10100 z
b10100 ]
b10100 {
b10100 ~
b10100 #"
b101 &
1#
1S
#275
0#
0S
#300
13"
11
b0 2"
b0 /
b0 A"
00"
b11111111111111111111111111111110 &"
b10000 Z"
b10000 2
b10000 e"
0/"
b111110 V
b111110 ."
b111110 D"
b11100 h
b11100 \
b11100 y
b10010 ("
b10010 <
b10010 g
b11010 F"
b11111 H"
b1111111000 E"
b11111 ="
b10011 1"
b11111 -"
b11111111111111111111111111111111 :"
b11111111111111111111111111111111 :
b11111111111111111111111111111111 B"
b100 x
b100 P
b100 i
b100 d"
b100 s
b100 +
b100 W"
b100 k
b100 ,
b100 X"
b101 ]"
b101 -
b101 V"
b1 c"
b1 8
b1 w
b11001010110110000011 Y
b11001010110110000011 !"
b11001010110110000011 ""
b11100 }
b11100 ;
b11100 f
b10100 %"
b10100 [
b10100 '"
b11111111111111010000110100010011 $"
b11111111111111010000110100010011 Z
b11111111111111010000110100010011 9"
b11001 S"
b11001 ^
b11001 ;"
b11001 f"
b11100 U"
b11100 b
b11100 a"
b11010 T"
b11010 a
b11010 `"
b1000 R"
b1000 X
b1000 \"
b0 K"
b0 9
b0 j
b111000 Q"
b111000 W
b111000 t
b100 P"
b100 U
b100 o
0J"
00
b10 I"
b10 .
b10 ["
b1111 m"
b1111 _
b1111 ^"
b1111 s"
b111110 k"
b111110 Q
b111110 o"
b11111111111111111111111111111111 l"
b11111111111111111111111111111111 3
b11111111111111111111111111111111 q
b11111111111111111111111111111111 v
b11111111111111111111111111111111 n"
b11111111111111111111111111111111 r"
b11100 x"
b11100 `
b11100 )"
b11100 _"
b11000 z
b11000 ]
b11000 {
b11000 ~
b11000 #"
b110 &
1#
1S
#325
0#
0S
#350
15"
1>
17"
1D
b111110 x
b111110 P
b111110 i
b111110 d"
b11 Z"
b11 2
b11 e"
b0 V
b0 ."
b0 D"
b11111111111111111111111111100111 T
b11111111111111111111111111100111 ,"
b11111111111111111111111111100111 C"
b0 &"
b100000 h
b100000 \
b100000 y
b11111111111111111111111111111111 n
b11111111111111111111111111111111 R
b11111111111111111111111111111111 p
b11111111111111111111111111111111 u
b11111111111111111111111111111111 *"
b0 c"
b0 8
b0 w
b11111111111111111111111111111111 k
b11111111111111111111111111111111 ,
b11111111111111111111111111111111 X"
b110 ]"
b110 -
b110 V"
b11000 ("
b11000 <
b11000 g
b11011 F"
b0 H"
b11001 G"
b10 E"
b0 ="
b11001 <"
b11 1"
b0 -"
b11001 +"
b0 :"
b0 :
b0 B"
b1101111000000110000110011 Y
b1101111000000110000110011 !"
b1101111000000110000110011 ""
b100000 }
b100000 ;
b100000 f
b1111 x"
b1111 `
b1111 )"
b1111 _"
b11111111111111111111111111111111 w"
b11111111111111111111111111111111 4
b11111111111111111111111111111111 l
b11001 m"
b11001 _
b11001 ^"
b11001 s"
b100 k"
b100 Q
b100 o"
b10000 l"
b10000 3
b10000 q
b10000 v
b10000 n"
b10000 r"
b11010 S"
b11010 ^
b11010 ;"
b11010 f"
b11111 U"
b11111 b
b11111 a"
b1111111000 R"
b1111111000 X
b1111111000 \"
b11111111111111111111111111111111 K"
b11111111111111111111111111111111 9
b11111111111111111111111111111111 j
b111110 Q"
b111110 W
b111110 t
1J"
10
b0 I"
b0 .
b0 ["
b11000 %"
b11000 [
b11000 '"
b11001010110110000011 $"
b11001010110110000011 Z
b11001010110110000011 9"
b11100 z
b11100 ]
b11100 {
b11100 ~
b11100 #"
b111 &
1#
1S
#375
0#
0S
#400
08"
0L
1>"
1G
0?"
0H
1@"
1O
05"
0>
07"
0D
03"
01
b11 2"
b11 /
b11 A"
b11111111111111111111111111100101 V
b11111111111111111111111111100101 ."
b11111111111111111111111111100101 D"
b10000 Z"
b10000 2
b10000 e"
b0 T
b0 ,"
b0 C"
b100100 h
b100100 \
b100100 y
b11100 ("
b11100 <
b11100 g
b11000 F"
b11011 H"
b11000 G"
b0 E"
b11011 ="
b11000 <"
b110011 1"
b11011 -"
b11000 +"
b0 :"
b1000 ]"
b1000 -
b1000 V"
b0 k
b0 ,
b0 X"
b0 x
b0 P
b0 i
b0 d"
b10000 s
b10000 +
b10000 W"
b1 b"
b1 7
b1 r
b10000 n
b10000 R
b10000 p
b10000 u
b10000 *"
b111111010000010001100011 Y
b111111010000010001100011 !"
b111111010000010001100011 ""
b100100 }
b100100 ;
b100100 f
b11100 %"
b11100 [
b11100 '"
b1101111000000110000110011 $"
b1101111000000110000110011 Z
b1101111000000110000110011 9"
b11011 S"
b11011 ^
b11011 ;"
b11011 f"
b0 U"
b0 b
b0 a"
b11001 T"
b11001 a
b11001 `"
b10 R"
b10 X
b10 \"
b0 K"
b0 9
b0 j
b0 Q"
b0 W
b0 t
b11111111111111111111111111100111 P"
b11111111111111111111111111100111 U
b11111111111111111111111111100111 o
1L"
1=
1N"
1C
b11010 m"
b11010 _
b11010 ^"
b11010 s"
b111110 k"
b111110 Q
b111110 o"
b11 l"
b11 3
b11 q
b11 v
b11 n"
b11 r"
b11001 x"
b11001 `
b11001 )"
b11001 _"
b10000 w"
b10000 4
b10000 l
b100000 z
b100000 ]
b100000 {
b100000 ~
b100000 #"
b1000 &
1#
1S
#425
0#
0S
#450
18"
1L
b10 2"
b10 /
b10 A"
0>"
0G
1?"
1H
0@"
0O
b0 s
b0 +
b0 W"
b10000 k
b10000 ,
b10000 X"
1Y"
1e
b0 Z"
b0 2
b0 e"
b11 n
b11 R
b11 p
b11 u
b11 *"
b11101 I
b11101 p"
b11101 q"
b10 c"
b10 8
b10 w
b0 b"
b0 7
b0 r
b10000 x
b10000 P
b10000 i
b10000 d"
b1011 ]"
b1011 -
b1011 V"
b11010 x"
b11010 `
b11010 )"
b11010 _"
b11 w"
b11 4
b11 l
b11011 m"
b11011 _
b11011 ^"
b11011 s"
b0 k"
b0 Q
b0 o"
b10000 l"
b10000 3
b10000 q
b10000 v
b10000 n"
b10000 r"
1g"
1?
1i"
1E
b11000 S"
b11000 ^
b11000 ;"
b11000 f"
b11011 U"
b11011 b
b11011 a"
b11000 T"
b11000 a
b11000 `"
b0 R"
b0 X
b0 \"
b11111111111111111111111111100101 Q"
b11111111111111111111111111100101 W
b11111111111111111111111111100101 t
b0 P"
b0 U
b0 o
0J"
00
b11 I"
b11 .
b11 ["
0L"
0=
0N"
0C
0O"
0K
b1001 &
b1 *
1#
1S
#475
0#
0S
#500
00"
14"
15
08"
0L
b1 2"
b1 /
b1 A"
b11101 k
b11101 ,
b11101 X"
b11 T
b11 ,"
b11 C"
b1000 &"
0Y"
0e
b11101 Z"
b11101 2
b11101 e"
b11111111111111111111111111111111 V
b11111111111111111111111111111111 ."
b11111111111111111111111111111111 D"
b11101 x
b11101 P
b11101 i
b11101 d"
b101000 h
b101000 \
b101000 y
b101000 ("
b101000 <
b101000 g
b1000 F"
b1111 H"
b11010 G"
b1111 ="
b11010 <"
b1100011 1"
b1111 -"
b11010 +"
b100 :"
b100 :
b100 B"
b11 ]"
b11 -
b11 V"
b0 I
b0 p"
b0 q"
b1 c"
b1 8
b1 w
b11101 n
b11101 R
b11101 p
b11101 u
b11101 *"
b11111110000000000000011011100011 Y
b11111110000000000000011011100011 !"
b11111110000000000000011011100011 ""
b101000 }
b101000 ;
b101000 f
b100000 %"
b100000 [
b100000 '"
b111111010000010001100011 $"
b111111010000010001100011 Z
b111111010000010001100011 9"
b10 I"
b10 .
b10 ["
1O"
1K
b11000 m"
b11000 _
b11000 ^"
b11000 s"
b10000 k"
b10000 Q
b10000 o"
b0 l"
b0 3
b0 q
b0 v
b0 n"
b0 r"
0g"
0?
0i"
0E
0j"
0M
b11011 x"
b11011 `
b11011 )"
b11011 _"
b11101 u"
b11101 J
b11101 m
b10000 w"
b10000 4
b10000 l
1t"
1F
b100100 z
b100100 ]
b100100 {
b100100 ~
b100100 #"
b1010 &
1#
1S
#525
0#
0S
#550
b11111111111111111111111111111111 k
b11111111111111111111111111111111 ,
b11111111111111111111111111111111 X"
10"
16
b11111111111111111111111111111111 x
b11111111111111111111111111111111 P
b11111111111111111111111111111111 i
b11111111111111111111111111111111 d"
1Y"
1e
b0 Z"
b0 2
b0 e"
1/"
b0 V
b0 ."
b0 D"
b0 T
b0 ,"
b0 C"
b11111111111111111111111111101100 &"
b10000 h
b10000 \
b10000 y
b0 n
b0 R
b0 p
b0 u
b0 *"
b0 c"
b0 8
b0 w
b11 s
b11 +
b11 W"
b1001 ]"
b1001 -
b1001 V"
b10000 ("
b10000 <
b10000 g
b1101 F"
b0 H"
b0 G"
b1111111000 E"
b0 ="
b0 <"
b0 -"
b0 +"
b11111111111111111111111111110110 :"
b11111111111111111111111111110110 :
b11111111111111111111111111110110 B"
b1100000000010111000100011 Y
b1100000000010111000100011 !"
b1100000000010111000100011 ""
b101100 }
b101100 ;
b101100 f
b11000 x"
b11000 `
b11000 )"
b11000 _"
b0 u"
b0 J
b0 m
b0 w"
b0 4
b0 l
0t"
0F
0v"
0N
b11101 k"
b11101 Q
b11101 o"
b11101 l"
b11101 3
b11101 q
b11101 v
b11101 n"
b11101 r"
1j"
1M
b1000 S"
b1000 ^
b1000 ;"
b1000 f"
b1111 U"
b1111 b
b1111 a"
b11010 T"
b11010 a
b11010 `"
b100 K"
b100 9
b100 j
b11111111111111111111111111111111 Q"
b11111111111111111111111111111111 W
b11111111111111111111111111111111 t
b11 P"
b11 U
b11 o
b1 I"
b1 .
b1 ["
0O"
0K
b100100 %"
b100100 [
b100100 '"
b11111110000000000000011011100011 $"
b11111110000000000000011011100011 Z
b11111110000000000000011011100011 9"
b101000 z
b101000 ]
b101000 {
b101000 ~
b101000 #"
b1011 &
1#
1S
#575
0#
0S
#600
00"
06
04"
05
18"
1L
b10 2"
b10 /
b10 A"
b0 &"
b10100 h
b10100 \
b10100 y
b101000 ("
b101000 <
b101000 g
b0 F"
b0 E"
b0 1"
b0 :"
b0 :
b0 B"
b0 k
b0 ,
b0 X"
b0 x
b0 P
b0 i
b0 d"
b0 s
b0 +
b0 W"
b11101 n
b11101 R
b11101 p
b11101 u
b11101 *"
b11110011010000110010110011 Y
b11110011010000110010110011 !"
b11110011010000110010110011 ""
b10100 }
b10100 ;
b10100 f
b101000 %"
b101000 [
b101000 '"
b0 $"
b0 Z
b0 9"
b1101 S"
b1101 ^
b1101 ;"
b1101 f"
b0 U"
b0 b
b0 a"
b0 T"
b0 a
b0 `"
b1111111000 R"
b1111111000 X
b1111111000 \"
b11111111111111111111111111110110 K"
b11111111111111111111111111110110 9
b11111111111111111111111111110110 j
b0 Q"
b0 W
b0 t
b0 P"
b0 U
b0 o
b1000 m"
b1000 _
b1000 ^"
b1000 s"
b11111111111111111111111111111111 k"
b11111111111111111111111111111111 Q
b11111111111111111111111111111111 o"
b0 l"
b0 3
b0 q
b0 v
b0 n"
b0 r"
0j"
0M
b11101 w"
b11101 4
b11101 l
1v"
1N
b10000 z
b10000 ]
b10000 {
b10000 ~
b10000 #"
b1100 &
b1 '
1#
1S
#625
0#
0S
#650
00"
b100 V
b100 ."
b100 D"
0/"
b11 T
b11 ,"
b11 C"
b11000 h
b11000 \
b11000 y
b0 n
b0 R
b0 p
b0 u
b0 *"
b11 ]"
b11 -
b11 V"
b10000 ("
b10000 <
b10000 g
b11001 F"
b11100 H"
b11010 G"
b1000 E"
b11100 ="
b11010 <"
b110011 1"
b11100 -"
b11010 +"
b0 :"
b11111111111111010000110100010011 Y
b11111111111111010000110100010011 !"
b11111111111111010000110100010011 ""
b11000 }
b11000 ;
b11000 f
b1000 x"
b1000 `
b1000 )"
b1000 _"
b0 w"
b0 4
b0 l
0v"
0N
b1101 m"
b1101 _
b1101 ^"
b1101 s"
b0 k"
b0 Q
b0 o"
b0 S"
b0 ^
b0 ;"
b0 f"
b0 R"
b0 X
b0 \"
b0 K"
b0 9
b0 j
b10 I"
b10 .
b10 ["
1O"
1K
b10000 %"
b10000 [
b10000 '"
b11110011010000110010110011 $"
b11110011010000110010110011 Z
b11110011010000110010110011 9"
b10100 z
b10100 ]
b10100 {
b10100 ~
b10100 #"
b1101 &
1#
1S
#675
0#
0S
#700
13"
11
b0 2"
b0 /
b0 A"
0Y"
0e
b1100 Z"
b1100 2
b1100 e"
b111110 V
b111110 ."
b111110 D"
b11111111111111111111111111111110 &"
b100 k
b100 ,
b100 X"
b11100 h
b11100 \
b11100 y
b10010 ("
b10010 <
b10010 g
b11010 F"
b11111 H"
b1111111000 E"
b11111 ="
b10011 1"
b11111 -"
b11111111111111111111111111111111 :"
b11111111111111111111111111111111 :
b11111111111111111111111111111111 B"
b101 ]"
b101 -
b101 V"
b100 x
b100 P
b100 i
b100 d"
b11 s
b11 +
b11 W"
b11001010110110000011 Y
b11001010110110000011 !"
b11001010110110000011 ""
b11100 }
b11100 ;
b11100 f
b10100 %"
b10100 [
b10100 '"
b11111111111111010000110100010011 $"
b11111111111111010000110100010011 Z
b11111111111111010000110100010011 9"
b11001 S"
b11001 ^
b11001 ;"
b11001 f"
b11100 U"
b11100 b
b11100 a"
b11010 T"
b11010 a
b11010 `"
b1000 R"
b1000 X
b1000 \"
b100 Q"
b100 W
b100 t
b11 P"
b11 U
b11 o
b0 m"
b0 _
b0 ^"
b0 s"
1j"
1M
b1101 x"
b1101 `
b1101 )"
b1101 _"
b11000 z
b11000 ]
b11000 {
b11000 ~
b11000 #"
b1110 &
1#
1S
#725
0#
0S
