codes/CPU_1.vcd
$date
	Sun May 23 23:22:14 2021
$end
$version
	Icarus Verilog
$end
$timescale
	1s
$end
$scope module Sign_Extend $end
$var wire 12 ! data_i [11:0] $end
$var reg 32 " data_o [31:0] $end
$upscope $end
$scope module TestBench $end
$var reg 1 # Clk $end
$var reg 1 $ Reset $end
$var reg 1 % Start $end
$var integer 32 & counter [31:0] $end
$var integer 32 ' flush [31:0] $end
$var integer 32 ( i [31:0] $end
$var integer 32 ) outfile [31:0] $end
$var integer 32 * stall [31:0] $end
$scope module CPU $end
$var wire 32 + ALU0 [31:0] $end
$var wire 32 , ALU1 [31:0] $end
$var wire 4 - ALUCtrl [3:0] $end
$var wire 2 . ALUOp_EX [1:0] $end
$var wire 2 / ALUOp_ID [1:0] $end
$var wire 1 0 ALUSrc_EX $end
$var wire 1 1 ALUSrc_ID $end
$var wire 32 2 ALU_result [31:0] $end
$var wire 32 3 ALU_result_MEM [31:0] $end
$var wire 32 4 ALU_result_WB [31:0] $end
$var wire 1 5 Branch $end
$var wire 1 6 Flush $end
$var wire 2 7 ForwardA [1:0] $end
$var wire 2 8 ForwardB [1:0] $end
$var wire 32 9 ImmGen_EX [31:0] $end
$var wire 32 : ImmGen_ID [31:0] $end
$var wire 32 ; MUX1_0 [31:0] $end
$var wire 32 < MUX1_1 [31:0] $end
$var wire 1 = MemRead_EX $end
$var wire 1 > MemRead_ID $end
$var wire 1 ? MemRead_MEM $end
$var wire 1 @ MemWrite_EX $end
$var wire 1 A MemWrite_ID $end
$var wire 1 B MemWrite_MEM $end
$var wire 1 C MemtoReg_EX $end
$var wire 1 D MemtoReg_ID $end
$var wire 1 E MemtoReg_MEM $end
$var wire 1 F MemtoReg_WB $end
$var wire 1 G NoOp $end
$var wire 1 H PCWrite $end
$var wire 32 I Readdata_MEM [31:0] $end
$var wire 32 J Readdata_WB [31:0] $end
$var wire 1 K RegWrite_EX $end
$var wire 1 L RegWrite_ID $end
$var wire 1 M RegWrite_MEM $end
$var wire 1 N RegWrite_WB $end
$var wire 1 O Stall $end
$var wire 32 P Writedata_EX [31:0] $end
$var wire 32 Q Writedata_MEM [31:0] $end
$var wire 32 R Writedata_WB [31:0] $end
$var wire 1 S clk_i $end
$var wire 32 T data1_i [31:0] $end
$var wire 32 U data1_o [31:0] $end
$var wire 32 V data2_i [31:0] $end
$var wire 32 W data2_o [31:0] $end
$var wire 10 X funct [9:0] $end
$var wire 32 Y instr_i [31:0] $end
$var wire 32 Z instr_o [31:0] $end
$var wire 32 [ pc_add [31:0] $end
$var wire 32 \ pc_i [31:0] $end
$var wire 32 ] pc_o [31:0] $end
$var wire 5 ^ rd_EX [4:0] $end
$var wire 5 _ rd_MEM [4:0] $end
$var wire 5 ` rd_WB [4:0] $end
$var wire 5 a rs1_EX [4:0] $end
$var wire 5 b rs2_EX [4:0] $end
$var wire 1 c rst_i $end
$var wire 1 d start_i $end
$var wire 1 e zero $end
$scope module MUX32_1 $end
$var wire 32 f data1_i [31:0] $end
$var wire 32 g data2_i [31:0] $end
$var wire 1 6 select_i $end
$var reg 32 h data_o [31:0] $end
$upscope $end
$scope module MUX32_2 $end
$var wire 32 i data1_i [31:0] $end
$var wire 32 j data2_i [31:0] $end
$var wire 1 0 select_i $end
$var reg 32 k data_o [31:0] $end
$upscope $end
$scope module MUX32_3 $end
$var wire 32 l data1_i [31:0] $end
$var wire 32 m data2_i [31:0] $end
$var wire 1 F select_i $end
$var reg 32 n data_o [31:0] $end
$upscope $end
$scope module MUX4_A $end
$var wire 32 o data1_i [31:0] $end
$var wire 32 p data2_i [31:0] $end
$var wire 32 q data3_i [31:0] $end
$var wire 2 r select_i [1:0] $end
$var reg 32 s data_o [31:0] $end
$upscope $end
$scope module MUX4_B $end
$var wire 32 t data1_i [31:0] $end
$var wire 32 u data2_i [31:0] $end
$var wire 32 v data3_i [31:0] $end
$var wire 2 w select_i [1:0] $end
$var reg 32 x data_o [31:0] $end
$upscope $end
$scope module PC $end
$var wire 1 H PCWrite_i $end
$var wire 1 S clk_i $end
$var wire 32 y pc_i [31:0] $end
$var wire 1 c rst_i $end
$var wire 1 d start_i $end
$var reg 32 z pc_o [31:0] $end
$upscope $end
$scope module Add_PC $end
$var wire 32 { data1_in [31:0] $end
$var wire 32 | data2_in [31:0] $end
$var reg 32 } data_o [31:0] $end
$upscope $end
$scope module Instruction_Memory $end
$var wire 32 ~ addr_i [31:0] $end
$var wire 32 !" instr_o [31:0] $end
$upscope $end
$scope module IF_ID $end
$var wire 1 6 Flush_i $end
$var wire 32 "" Instruction_i [31:0] $end
$var wire 32 #" PC_i [31:0] $end
$var wire 1 O Stall_i $end
$var wire 1 S clk_i $end
$var wire 1 c rst_i $end
$var reg 1 $" Flush $end
$var reg 32 %" Instruction_o [31:0] $end
$var reg 32 &" PC_o [31:0] $end
$var reg 1 '" Stall $end
$upscope $end
$scope module Add_BEQ $end
$var wire 32 (" data1_in [31:0] $end
$var wire 32 )" data2_in [31:0] $end
$var reg 32 *" data_o [31:0] $end
$upscope $end
$scope module Registers $end
$var wire 5 +" RDaddr_i [4:0] $end
$var wire 32 ," RDdata_i [31:0] $end
$var wire 5 -" RS1addr_i [4:0] $end
$var wire 32 ." RS1data_o [31:0] $end
$var wire 5 /" RS2addr_i [4:0] $end
$var wire 32 0" RS2data_o [31:0] $end
$var wire 1 N RegWrite_i $end
$var wire 1 S clk_i $end
$upscope $end
$scope module And $end
$var wire 1 5 data1_i $end
$var wire 1 1" data2_i $end
$var reg 1 2" data_o $end
$upscope $end
$scope module Control $end
$var wire 1 G NoOp_i $end
$var wire 7 3" Op_i [6:0] $end
$var reg 2 4" ALUOp_o [1:0] $end
$var reg 1 5" ALUSrc_o $end
$var reg 1 6" Branch_o $end
$var reg 1 7" MemRead_o $end
$var reg 1 8" MemWrite_o $end
$var reg 1 9" MemtoReg_o $end
$var reg 1 :" RegWrite_o $end
$upscope $end
$scope module ImmGen $end
$var wire 32 ;" data_i [31:0] $end
$var reg 32 <" data_o [31:0] $end
$upscope $end
$scope module Hazard_Detection $end
$var wire 1 = MemRead_i $end
$var wire 5 =" rd_i [4:0] $end
$var wire 5 >" rs1_i [4:0] $end
$var wire 5 ?" rs2_i [4:0] $end
$var reg 1 @" NoOp_o $end
$var reg 1 A" PCWrite_o $end
$var reg 1 B" Stall_o $end
$upscope $end
$scope module ID_EX $end
$var wire 2 C" ALUOp_i [1:0] $end
$var wire 1 1 ALUSrc_i $end
$var wire 32 D" ImmGen_i [31:0] $end
$var wire 1 > MemRead_i $end
$var wire 1 A MemWrite_i $end
$var wire 1 D MemtoReg_i $end
$var wire 1 L RegWrite_i $end
$var wire 1 S clk_i $end
$var wire 32 E" data1_i [31:0] $end
$var wire 32 F" data2_i [31:0] $end
$var wire 10 G" funct_i [9:0] $end
$var wire 5 H" rd_i [4:0] $end
$var wire 5 I" rs1_i [4:0] $end
$var wire 5 J" rs2_i [4:0] $end
$var wire 1 c rst_i $end
$var reg 2 K" ALUOp_o [1:0] $end
$var reg 1 L" ALUSrc_o $end
$var reg 32 M" ImmGen_o [31:0] $end
$var reg 1 N" MemRead_o $end
$var reg 1 O" MemWrite_o $end
$var reg 1 P" MemtoReg_o $end
$var reg 1 Q" RegWrite_o $end
$var reg 32 R" data1_o [31:0] $end
$var reg 32 S" data2_o [31:0] $end
$var reg 10 T" funct_o [9:0] $end
$var reg 5 U" rd_o [4:0] $end
$var reg 5 V" rs1_o [4:0] $end
$var reg 5 W" rs2_o [4:0] $end
$upscope $end
$scope module ALU $end
$var wire 4 X" ALUCtrl_i [3:0] $end
$var wire 32 Y" data1_i [31:0] $end
$var wire 32 Z" data2_i [31:0] $end
$var reg 1 [" Zero_o $end
$var reg 32 \" data_o [31:0] $end
$upscope $end
$scope module ALU_Control $end
$var wire 2 ]" ALUOp_i [1:0] $end
$var wire 10 ^" funct_i [9:0] $end
$var reg 4 _" ALUCtrl_o [3:0] $end
$upscope $end
$scope module Forward $end
$var wire 1 M RegWrite_MEM_i $end
$var wire 1 N RegWrite_WB_i $end
$var wire 5 `" rd_MEM_i [4:0] $end
$var wire 5 a" rd_WB_i [4:0] $end
$var wire 5 b" rs1_EX_i [4:0] $end
$var wire 5 c" rs2_EX_i [4:0] $end
$var reg 2 d" ForwardA_o [1:0] $end
$var reg 2 e" ForwardB_o [1:0] $end
$upscope $end
$scope module EX_MEM $end
$var wire 1 = MemRead_i $end
$var wire 1 @ MemWrite_i $end
$var wire 1 C MemtoReg_i $end
$var wire 1 K RegWrite_i $end
$var wire 32 f" Writedata_i [31:0] $end
$var wire 1 S clk_i $end
$var wire 32 g" data_i [31:0] $end
$var wire 5 h" rd_i [4:0] $end
$var wire 1 c rst_i $end
$var reg 1 i" MemRead_o $end
$var reg 1 j" MemWrite_o $end
$var reg 1 k" MemtoReg_o $end
$var reg 1 l" RegWrite_o $end
$var reg 32 m" Writedata_o [31:0] $end
$var reg 32 n" data_o [31:0] $end
$var reg 5 o" rd_o [4:0] $end
$upscope $end
$scope module Data_Memory $end
$var wire 1 ? MemRead_i $end
$var wire 1 B MemWrite_i $end
$var wire 32 p" addr_i [31:0] $end
$var wire 1 S clk_i $end
$var wire 32 q" data_i [31:0] $end
$var wire 32 r" data_o [31:0] $end
$upscope $end
$scope module MEM_WB $end
$var wire 1 E MemtoReg_i $end
$var wire 32 s" Readdata_i [31:0] $end
$var wire 1 M RegWrite_i $end
$var wire 1 S clk_i $end
$var wire 32 t" data_i [31:0] $end
$var wire 5 u" rd_i [4:0] $end
$var wire 1 c rst_i $end
$var reg 1 v" MemtoReg_o $end
$var reg 32 w" Readdata_o [31:0] $end
$var reg 1 x" RegWrite_o $end
$var reg 32 y" data_o [31:0] $end
$var reg 5 z" rd_o [4:0] $end
$upscope $end
$upscope $end
$upscope $end
$enddefinitions $end
#0
$dumpvars
b0 z"
b0 y"
0x"
b0 w"
0v"
b0 u"
b0 t"
b0 s"
b0 r"
b0 q"
b0 p"
b0 o"
b0 n"
b0 m"
0l"
0k"
0j"
0i"
b0 h"
b0 g"
b0 f"
b0 e"
b0 d"
b0 c"
b0 b"
b0 a"
b0 `"
b110 _"
b0 ^"
b0 ]"
b0 \"
1["
b0 Z"
b0 Y"
b110 X"
b0 W"
b0 V"
b0 U"
b0 T"
b0 S"
b0 R"
0Q"
0P"
0O"
0N"
b0 M"
0L"
b0 K"
b0 J"
b0 I"
b0 H"
b0 G"
b0 F"
b0 E"
b0 D"
b10 C"
0B"
1A"
0@"
b0 ?"
b0 >"
b0 ="
b0 <"
b0 ;"
1:"
09"
08"
07"
06"
05"
b10 4"
b0 3"
02"
11"
b0 0"
b0 /"
b0 ."
b0 -"
b0 ,"
b0 +"
b0 *"
b0 )"
b0 ("
0'"
b0 &"
b0 %"
0$"
b0 #"
b111100000000001100010011 ""
b111100000000001100010011 !"
b0 ~
b100 }
b100 |
b0 {
b0 z
b100 y
b0 x
b0 w
b0 v
b0 u
b0 t
b0 s
b0 r
b0 q
b0 p
b0 o
b0 n
b0 m
b0 l
b0 k
b0 j
b0 i
b100 h
b0 g
b100 f
1e
0d
1c
b0 b
b0 a
b0 `
b0 _
b0 ^
b0 ]
b100 \
b0 [
b0 Z
b111100000000001100010011 Y
b0 X
b0 W
b0 V
b0 U
b0 T
1S
b0 R
b0 Q
b0 P
0O
0N
0M
1L
0K
b0 J
b0 I
1H
0G
0F
0E
0D
0C
0B
0A
0@
0?
0>
0=
b0 <
b100 ;
b0 :
b0 9
b0 8
b0 7
06
05
b0 4
b0 3
b0 2
01
00
b10 /
b0 .
b110 -
b0 ,
b0 +
b0 *
b11 )
b100000 (
b0 '
b0 &
0%
1$
1#
bz "
bz !
$end
#12
1%
1d
0$
0c
#25
0#
0S
#50
15"
11
b0 4"
b0 /
b0 C"
b11110 *"
b11110 <
b11110 g
b11110 ("
b1000 h
b1000 \
b1000 y
b110 H"
b1111 J"
b1111 ?"
b10011 3"
b1111 /"
b1111 <"
b1111 :
b1111 D"
b11000000010001000100011 Y
b11000000010001000100011 !"
b11000000010001000100011 ""
b1000 }
b1000 ;
b1000 f
b10 K"
b10 .
b10 ]"
1Q"
1K
b111100000000001100010011 %"
b111100000000001100010011 Z
b111100000000001100010011 ;"
b100 z
b100 ]
b100 {
b100 ~
b100 #"
b1 &
1#
1S
#75
0#
0S
#100
18"
1A
0:"
0L
b1000 ("
0["
0e
b1111 \"
b1111 2
b1111 g"
b1100 h
b1100 \
b1100 y
b1100 *"
b1100 <
b1100 g
b100 H"
b110 J"
b10 G"
b110 ?"
b100011 3"
b110 /"
b100 <"
b100 :
b100 D"
b1111 k
b1111 ,
b1111 Z"
b101010111100000011 Y
b101010111100000011 !"
b101010111100000011 ""
b1100 }
b1100 ;
b1100 f
b100 &"
b100 [
b100 )"
b11000000010001000100011 %"
b11000000010001000100011 Z
b11000000010001000100011 ;"
b110 U"
b110 ^
b110 ="
b110 h"
b1111 W"
b1111 b
b1111 c"
b1111 M"
b1111 9
b1111 j
1L"
10
b0 K"
b0 .
b0 ]"
1l"
1M
b1000 z
b1000 ]
b1000 {
b1000 ~
b1000 #"
b10 &
1#
1S
#125
0#
0S
#150
08"
0A
17"
1>
19"
1D
1:"
1L
b1111 x
b1111 P
b1111 i
b1111 f"
b100 \"
b100 2
b100 g"
b0 ("
b10000 h
b10000 \
b10000 y
b10 e"
b10 8
b10 w
b1000 _"
b1000 -
b1000 X"
b100 k
b100 ,
b100 Z"
b1000 *"
b1000 <
b1000 g
b11110 H"
b0 J"
b101 I"
b0 ?"
b101 >"
b11 3"
b0 /"
b101 -"
b0 <"
b0 :
b0 D"
b11111000110000001010110011 Y
b11111000110000001010110011 !"
b11111000110000001010110011 ""
b10000 }
b10000 ;
b10000 f
1x"
1N
b110 o"
b110 _
b110 `"
b110 u"
b1111 n"
b1111 3
b1111 q
b1111 v
b1111 p"
b1111 t"
b100 U"
b100 ^
b100 ="
b100 h"
b110 W"
b110 b
b110 c"
b10 T"
b10 X
b10 ^"
b100 M"
b100 9
b100 j
1O"
1@
0Q"
0K
b1000 &"
b1000 [
b1000 )"
b101010111100000011 %"
b101010111100000011 Z
b101010111100000011 ;"
b1100 z
b1100 ]
b1100 {
b1100 ~
b1100 #"
b11 &
1#
1S
#175
0#
0S
#200
0:"
0L
1@"
1G
0A"
0H
1B"
1O
07"
0>
09"
0D
05"
01
b11 4"
b11 /
b11 C"
02"
01"
b1111 T
b1111 ."
b1111 E"
1["
1e
b0 \"
b0 2
b0 g"
b0 x
b0 P
b0 i
b0 f"
b10100 h
b10100 \
b10100 y
b1100 *"
b1100 <
b1100 g
b101 H"
b11110 J"
b110 I"
b1000 G"
b11110 ?"
b110 >"
b110011 3"
b11110 /"
b110 -"
b0 <"
b0 k
b0 ,
b0 Z"
b0 e"
b0 8
b0 w
b1111 n
b1111 R
b1111 p
b1111 u
b1111 ,"
b101110001110110011 Y
b101110001110110011 !"
b101110001110110011 ""
b10100 }
b10100 ;
b10100 f
b1100 &"
b1100 [
b1100 )"
b11111000110000001010110011 %"
b11111000110000001010110011 Z
b11111000110000001010110011 ;"
b11110 U"
b11110 ^
b11110 ="
b11110 h"
b0 W"
b0 b
b0 c"
b101 V"
b101 a
b101 b"
b0 M"
b0 9
b0 j
0O"
0@
1N"
1=
1P"
1C
1Q"
1K
b100 o"
b100 _
b100 `"
b100 u"
b1111 m"
b1111 Q
b1111 q"
b100 n"
b100 3
b100 q
b100 v
b100 p"
b100 t"
1j"
1B
0l"
0M
b110 z"
b110 `
b110 +"
b110 a"
b1111 y"
b1111 4
b1111 l
b10000 z
b10000 ]
b10000 {
b10000 ~
b10000 #"
b100 &
1#
1S
#225
0#
0S
#250
1:"
1L
b10 4"
b10 /
b10 C"
0@"
0G
1A"
1H
0B"
0O
02"
11"
b0 T
b0 ."
b0 E"
b100 n
b100 R
b100 p
b100 u
b100 ,"
b101 I
b101 r"
b101 s"
b10 e"
b10 8
b10 w
b1011 _"
b1011 -
b1011 X"
b1111 s
b1111 +
b1111 Y"
b10000 *"
b10000 <
b10000 g
b0 H"
b0 J"
b0 I"
b0 G"
b0 ?"
b0 >"
b0 3"
b0 /"
b0 -"
b0 <"
b100 z"
b100 `
b100 +"
b100 a"
b100 y"
b100 4
b100 l
0x"
0N
b11110 o"
b11110 _
b11110 `"
b11110 u"
b0 m"
b0 Q
b0 q"
b0 n"
b0 3
b0 q
b0 v
b0 p"
b0 t"
0j"
0B
1i"
1?
1k"
1E
1l"
1M
b101 U"
b101 ^
b101 ="
b101 h"
b11110 W"
b11110 b
b11110 c"
b110 V"
b110 a
b110 b"
b1000 T"
b1000 X
b1000 ^"
b1111 R"
b1111 U
b1111 o
0L"
00
b11 K"
b11 .
b11 ]"
0N"
0=
0P"
0C
0Q"
0K
b10000 &"
b10000 [
b10000 )"
b0 %"
b0 Z
b0 ;"
b101 &
b1 *
1#
1S
#275
0#
0S
#300
b11000 h
b11000 \
b11000 y
b111 H"
b101 I"
b110 G"
b101 >"
b110011 3"
b101 -"
b0 <"
b11 _"
b11 -
b11 X"
b0 s
b0 +
b0 Y"
b0 I
b0 r"
b0 s"
b101 n
b101 R
b101 p
b101 u
b101 ,"
b0 e"
b0 8
b0 w
b11100000010010000100011 Y
b11100000010010000100011 !"
b11100000010010000100011 ""
b11000 }
b11000 ;
b11000 f
b101110001110110011 %"
b101110001110110011 Z
b101110001110110011 ;"
b0 U"
b0 ^
b0 ="
b0 h"
b0 W"
b0 b
b0 c"
b0 V"
b0 a
b0 b"
b0 T"
b0 X
b0 ^"
b0 R"
b0 U
b0 o
b10 K"
b10 .
b10 ]"
1Q"
1K
b101 o"
b101 _
b101 `"
b101 u"
0i"
0?
0k"
0E
0l"
0M
b11110 z"
b11110 `
b11110 +"
b11110 a"
b101 w"
b101 J
b101 m
b0 y"
b0 4
b0 l
1v"
1F
1x"
1N
b10100 z
b10100 ]
b10100 {
b10100 ~
b10100 #"
b110 &
1#
1S
#325
0#
0S
#350
18"
1A
0:"
0L
15"
11
b0 4"
b0 /
b0 C"
b10000 ("
b11100 h
b11100 \
b11100 y
b0 n
b0 R
b0 p
b0 u
b0 ,"
b1010 _"
b1010 -
b1010 X"
b100100 *"
b100100 <
b100100 g
b1000 H"
b111 J"
b0 I"
b10 G"
b111 ?"
b0 >"
b100011 3"
b111 /"
b0 -"
b1000 <"
b1000 :
b1000 D"
b11000110000001100110011 Y
b11000110000001100110011 !"
b11000110000001100110011 ""
b11100 }
b11100 ;
b11100 f
b101 z"
b101 `
b101 +"
b101 a"
b0 w"
b0 J
b0 m
0v"
0F
0x"
0N
b0 o"
b0 _
b0 `"
b0 u"
1l"
1M
b111 U"
b111 ^
b111 ="
b111 h"
b101 V"
b101 a
b101 b"
b110 T"
b110 X
b110 ^"
b10100 &"
b10100 [
b10100 )"
b11100000010010000100011 %"
b11100000010010000100011 Z
b11100000010010000100011 ;"
b11000 z
b11000 ]
b11000 {
b11000 ~
b11000 #"
b111 &
1#
1S
#375
0#
0S
#400
08"
0A
1:"
1L
05"
01
b10 4"
b10 /
b10 C"
02"
b1111 T
b1111 ."
b1111 E"
11"
b1111 V
b1111 0"
b1111 F"
b0 ("
0["
0e
b1000 \"
b1000 2
b1000 g"
b100000 h
b100000 \
b100000 y
b11000 *"
b11000 <
b11000 g
b110 H"
b110 J"
b110 I"
b0 G"
b110 ?"
b110 >"
b110011 3"
b110 /"
b110 -"
b0 <"
b0 :
b0 D"
b1000 _"
b1000 -
b1000 X"
b1000 k
b1000 ,
b1000 Z"
b10 e"
b10 8
b10 w
b100000 }
b100000 ;
b100000 f
b11000 &"
b11000 [
b11000 )"
b11000110000001100110011 %"
b11000110000001100110011 Z
b11000110000001100110011 ;"
b1000 U"
b1000 ^
b1000 ="
b1000 h"
b111 W"
b111 b
b111 c"
b0 V"
b0 a
b0 b"
b10 T"
b10 X
b10 ^"
b1000 M"
b1000 9
b1000 j
1L"
10
b0 K"
b0 .
b0 ]"
1O"
1@
0Q"
0K
b111 o"
b111 _
b111 `"
b111 u"
b0 z"
b0 `
b0 +"
b0 a"
1x"
1N
b11100 z
b11100 ]
b11100 {
b11100 ~
b11100 #"
b1000 &
1#
1S
#425
0#
0S
#450
b11110 \"
b11110 2
b11110 g"
b100100 h
b100100 \
b100100 y
b0 e"
b0 8
b0 w
b11 _"
b11 -
b11 X"
b1111 x
b1111 P
b1111 i
b1111 f"
b1111 s
b1111 +
b1111 Y"
b1111 k
b1111 ,
b1111 Z"
b11100 *"
b11100 <
b11100 g
b100000000010111010000011 Y
b100000000010111010000011 !"
b100000000010111010000011 ""
b100100 }
b100100 ;
b100100 f
b111 z"
b111 `
b111 +"
b111 a"
b1000 o"
b1000 _
b1000 `"
b1000 u"
b1000 n"
b1000 3
b1000 q
b1000 v
b1000 p"
b1000 t"
1j"
1B
0l"
0M
b110 U"
b110 ^
b110 ="
b110 h"
b110 W"
b110 b
b110 c"
b110 V"
b110 a
b110 b"
b0 T"
b0 X
b0 ^"
b0 M"
b0 9
b0 j
b1111 S"
b1111 W
b1111 t
b1111 R"
b1111 U
b1111 o
0L"
00
b10 K"
b10 .
b10 ]"
0O"
0@
1Q"
1K
b11100 &"
b11100 [
b11100 )"
b100000 z
b100000 ]
b100000 {
b100000 ~
b100000 #"
b1001 &
1#
1S
#475
0#
0S
#500
17"
1>
19"
1D
15"
11
b0 4"
b0 /
b0 C"
02"
b11110 k
b11110 ,
b11110 Z"
b111100 \"
b111100 2
b111100 g"
b0 V
b0 0"
b0 F"
11"
b0 T
b0 ."
b0 E"
b10000 ("
b11110 x
b11110 P
b11110 i
b11110 f"
b11110 s
b11110 +
b11110 Y"
b101000 h
b101000 \
b101000 y
b110000 *"
b110000 <
b110000 g
b11101 H"
b1000 J"
b0 I"
b10 G"
b1000 ?"
b0 >"
b11 3"
b1000 /"
b0 -"
b1000 <"
b1000 :
b1000 D"
b1000 n
b1000 R
b1000 p
b1000 u
b1000 ,"
b10 e"
b10 8
b10 w
b10 d"
b10 7
b10 r
b11011101111111000110011 Y
b11011101111111000110011 !"
b11011101111111000110011 ""
b101000 }
b101000 ;
b101000 f
b100000 &"
b100000 [
b100000 )"
b100000000010111010000011 %"
b100000000010111010000011 Z
b100000000010111010000011 ;"
b110 o"
b110 _
b110 `"
b110 u"
b1111 m"
b1111 Q
b1111 q"
b11110 n"
b11110 3
b11110 q
b11110 v
b11110 p"
b11110 t"
0j"
0B
1l"
1M
b1000 z"
b1000 `
b1000 +"
b1000 a"
b1000 y"
b1000 4
b1000 l
0x"
0N
b100100 z
b100100 ]
b100100 {
b100100 ~
b100100 #"
b1010 &
1#
1S
#525
0#
0S
#550
0:"
0L
07"
0>
09"
0D
05"
01
b11 4"
b11 /
b11 C"
1@"
1G
0A"
0H
1B"
1O
02"
b1000 \"
b1000 2
b1000 g"
01"
b11110 V
b11110 0"
b11110 F"
b0 ("
b101100 h
b101100 \
b101100 y
b11110 n
b11110 R
b11110 p
b11110 u
b11110 ,"
b0 e"
b0 8
b0 w
b0 d"
b0 7
b0 r
b1000 _"
b1000 -
b1000 X"
b0 x
b0 P
b0 i
b0 f"
b0 s
b0 +
b0 Y"
b1000 k
b1000 ,
b1000 Z"
b100100 *"
b100100 <
b100100 g
b11100 H"
b110 J"
b11101 I"
b111 G"
b110 ?"
b11101 >"
b110011 3"
b110 /"
b11101 -"
b0 <"
b0 :
b0 D"
b11111111000000110000001110010011 Y
b11111111000000110000001110010011 !"
b11111111000000110000001110010011 ""
b101100 }
b101100 ;
b101100 f
b110 z"
b110 `
b110 +"
b110 a"
b11110 y"
b11110 4
b11110 l
1x"
1N
b11110 m"
b11110 Q
b11110 q"
b111100 n"
b111100 3
b111100 q
b111100 v
b111100 p"
b111100 t"
b11101 U"
b11101 ^
b11101 ="
b11101 h"
b1000 W"
b1000 b
b1000 c"
b0 V"
b0 a
b0 b"
b10 T"
b10 X
b10 ^"
b1000 M"
b1000 9
b1000 j
b0 S"
b0 W
b0 t
b0 R"
b0 U
b0 o
1L"
10
b0 K"
b0 .
b0 ]"
1N"
1=
1P"
1C
b100100 &"
b100100 [
b100100 )"
b11011101111111000110011 %"
b11011101111111000110011 Z
b11011101111111000110011 ;"
b101000 z
b101000 ]
b101000 {
b101000 ~
b101000 #"
b1011 &
1#
1S
#575
0#
0S
#600
1:"
1L
b10 4"
b10 /
b10 C"
0@"
0G
1A"
1H
0B"
0O
02"
11"
0["
0e
b1000 \"
b1000 2
b1000 g"
b0 V
b0 0"
b0 F"
b1000 s
b1000 +
b1000 Y"
b101000 *"
b101000 <
b101000 g
b0 H"
b0 J"
b0 I"
b0 G"
b0 ?"
b0 >"
b0 3"
b0 /"
b0 -"
b0 <"
b0 _"
b0 -
b0 X"
b111100 x
b111100 P
b111100 i
b111100 f"
b111100 k
b111100 ,
b111100 Z"
b1 e"
b1 8
b1 w
b10 d"
b10 7
b10 r
b111100 n
b111100 R
b111100 p
b111100 u
b111100 ,"
b101000 &"
b101000 [
b101000 )"
b0 %"
b0 Z
b0 ;"
b11100 U"
b11100 ^
b11100 ="
b11100 h"
b110 W"
b110 b
b110 c"
b11101 V"
b11101 a
b11101 b"
b111 T"
b111 X
b111 ^"
b0 M"
b0 9
b0 j
b11110 S"
b11110 W
b11110 t
0L"
00
b11 K"
b11 .
b11 ]"
0N"
0=
0P"
0C
0Q"
0K
b11101 o"
b11101 _
b11101 `"
b11101 u"
b0 m"
b0 Q
b0 q"
b1000 n"
b1000 3
b1000 q
b1000 v
b1000 p"
b1000 t"
1i"
1?
1k"
1E
b111100 y"
b111100 4
b111100 l
b1100 &
b10 *
1#
1S
#625
0#
0S
#650
15"
11
b0 4"
b0 /
b0 C"
1["
1e
b0 k
b0 ,
b0 Z"
02"
b1000 *"
b1000 <
b1000 g
b0 x
b0 P
b0 i
b0 f"
b0 s
b0 +
b0 Y"
b0 \"
b0 2
b0 g"
01"
b111100 T
b111100 ."
b111100 E"
b11111111111111111111111111100000 ("
b110000 h
b110000 \
b110000 y
b0 n
b0 R
b0 p
b0 u
b0 ,"
b0 e"
b0 8
b0 w
b0 d"
b0 7
b0 r
b11 _"
b11 -
b11 X"
b111 H"
b10000 J"
b110 I"
b1111111000 G"
b10000 ?"
b110 >"
b10011 3"
b10000 /"
b110 -"
b11111111111111111111111111110000 <"
b11111111111111111111111111110000 :
b11111111111111111111111111110000 D"
b1000000000111000010011 Y
b1000000000111000010011 !"
b1000000000111000010011 ""
b110000 }
b110000 ;
b110000 f
b11101 z"
b11101 `
b11101 +"
b11101 a"
b1000 y"
b1000 4
b1000 l
1v"
1F
b11100 o"
b11100 _
b11100 `"
b11100 u"
b111100 m"
b111100 Q
b111100 q"
0i"
0?
0k"
0E
0l"
0M
b0 U"
b0 ^
b0 ="
b0 h"
b0 W"
b0 b
b0 c"
b0 V"
b0 a
b0 b"
b0 T"
b0 X
b0 ^"
b0 S"
b0 W
b0 t
b10 K"
b10 .
b10 ]"
1Q"
1K
b11111111000000110000001110010011 %"
b11111111000000110000001110010011 Z
b11111111000000110000001110010011 ;"
b101100 z
b101100 ]
b101100 {
b101100 ~
b101100 #"
b1101 &
1#
1S
#675
0#
0S
#700
02"
11"
b0 T
b0 ."
b0 E"
b100 ("
0["
0e
b101100 \"
b101100 2
b101100 g"
b110100 h
b110100 \
b110100 y
b110000 *"
b110000 <
b110000 g
b11100 H"
b10 J"
b0 I"
b0 G"
b10 ?"
b0 >"
b10 /"
b0 -"
b10 <"
b10 :
b10 D"
b110 _"
b110 -
b110 X"
b111100 s
b111100 +
b111100 Y"
b11111111111111111111111111110000 k
b11111111111111111111111111110000 ,
b11111111111111111111111111110000 Z"
b1000 n
b1000 R
b1000 p
b1000 u
b1000 ,"
b110000000010111100000011 Y
b110000000010111100000011 !"
b110000000010111100000011 ""
b110100 }
b110100 ;
b110100 f
b101100 &"
b101100 [
b101100 )"
b1000000000111000010011 %"
b1000000000111000010011 Z
b1000000000111000010011 ;"
b111 U"
b111 ^
b111 ="
b111 h"
b10000 W"
b10000 b
b10000 c"
b110 V"
b110 a
b110 b"
b1111111000 T"
b1111111000 X
b1111111000 ^"
b11111111111111111111111111110000 M"
b11111111111111111111111111110000 9
b11111111111111111111111111110000 j
b111100 R"
b111100 U
b111100 o
1L"
10
b0 K"
b0 .
b0 ]"
b0 o"
b0 _
b0 `"
b0 u"
b0 m"
b0 Q
b0 q"
b0 n"
b0 3
b0 q
b0 v
b0 p"
b0 t"
1l"
1M
b11100 z"
b11100 `
b11100 +"
b11100 a"
0v"
0F
0x"
0N
b110000 z
b110000 ]
b110000 {
b110000 ~
b110000 #"
b1110 &
1#
1S
#725
0#
0S
